ShooterGame/Binaries/Win64/ShooterGame.exe	2019-12-24T05:52:46.805Z
Engine/Extras/Redist/en-us/UE4PrereqSetup_x64.exe	2019-12-19T17:53:28.414Z
Engine/Binaries/ThirdParty/Oculus/OVRPlugin/OVRPlugin/Win64/OVRPlugin.dll	2019-12-19T17:49:01.796Z
Engine/Binaries/ThirdParty/DbgHelp/dbghelp.dll	2019-12-19T17:48:48.124Z
Engine/Binaries/ThirdParty/libsndfile/Win64/libsndfile-1.dll	2019-12-19T17:48:50.042Z
Engine/Binaries/ThirdParty/Steamworks/Steamv142/Win64/steam_api64.dll	2019-12-19T17:49:26.926Z
Engine/Binaries/ThirdParty/NVIDIA/NVaftermath/Win64/GFSDK_Aftermath_Lib.x64.dll	2019-12-19T17:48:59.750Z
Engine/Binaries/ThirdParty/Windows/DirectX/x64/WinPixEventRuntime.dll	2019-12-19T17:49:36.799Z
Engine/Binaries/ThirdParty/PhysX3/Win64/VS2015/PxFoundationPROFILE_x64.dll	2019-12-19T17:49:15.513Z
Engine/Binaries/ThirdParty/PhysX3/Win64/VS2015/PxPvdSDKPROFILE_x64.dll	2019-12-19T17:49:15.566Z
Engine/Binaries/ThirdParty/PhysX3/Win64/VS2015/PhysX3PROFILE_x64.dll	2019-12-19T17:49:14.914Z
Engine/Binaries/ThirdParty/PhysX3/Win64/VS2015/PhysX3CookingPROFILE_x64.dll	2019-12-19T17:49:14.777Z
Engine/Binaries/ThirdParty/PhysX3/Win64/VS2015/PhysX3CommonPROFILE_x64.dll	2019-12-19T17:49:14.514Z
Engine/Binaries/ThirdParty/PhysX3/Win64/VS2015/APEX_ClothingPROFILE_x64.dll	2019-12-19T17:49:11.137Z
Engine/Binaries/ThirdParty/PhysX3/Win64/VS2015/APEX_LegacyPROFILE_x64.dll	2019-12-19T17:49:12.504Z
Engine/Binaries/ThirdParty/PhysX3/Win64/VS2015/ApexFrameworkPROFILE_x64.dll	2019-12-19T17:49:13.197Z
Engine/Binaries/ThirdParty/PhysX3/Win64/VS2015/NvClothPROFILE_x64.dll	2019-12-19T17:49:13.609Z
Engine/Binaries/ThirdParty/OpenVR/OpenVRv1_5_17/Win64/openvr_api.dll	2019-12-19T17:49:01.864Z
Engine/Binaries/ThirdParty/Ogg/Win64/VS2015/libogg_64.dll	2019-12-19T17:49:01.810Z
Engine/Binaries/ThirdParty/Vorbis/Win64/VS2015/libvorbis_64.dll	2019-12-19T17:49:35.931Z
Engine/Binaries/ThirdParty/Vorbis/Win64/VS2015/libvorbisfile_64.dll	2019-12-19T17:49:35.933Z
ShooterGame/Content/Movies/LoadingScreen.mp4	2019-12-24T04:52:55.423Z
ShooterGame/Content/Movies/LoadingScreen.webm	2019-12-24T04:52:55.447Z
ShooterGame.exe	2019-12-24T11:09:35.058Z
